ibevar_reformation = {
	potential = {
		tag = A32
		NOT = { has_country_flag = ibevar_reformation_end }
	}

	can_start = {
		always = yes
	}
	
	
	can_stop = {
        always = no
	}
	
	progress = {
		modifier = {
			factor = 100
			always = yes
		}
	}
	
	can_end = {
		south_ibevar_area = {
			type = all
			owned_by = ROOT
			religion = regent_court
		}
		north_ibevar_area = {
			type = all
			owned_by = ROOT
			religion = regent_court
		}
	}
	
	modifier = {
		land_morale = -0.1
		stability_cost_modifier = 0.5
	}
	
	on_start = ibevar.2
	on_end = ibevar.7
	
	on_monthly = {
		events = {
			ibevar.102
		}
		random_events = { 
		}
	}
}

