#259 - Sandomierz

owner = A62
controller = A62
add_core = A62
culture = esmari
religion = regent_court

hre = yes

base_tax = 5
base_production = 5
base_manpower = 3

trade_goods = cloth
capital = ""

is_city = yes








