#363 - Diamientia

owner = A29
controller = A29
add_core = A29
culture = busilari
religion = regent_court

hre = no

base_tax = 5
base_production = 5
base_manpower = 3

trade_goods = grain

capital = ""

is_city = yes
fort_15th = yes 










