#389 - Mukalla

owner = U08
controller = U08
add_core = U08
culture = far_akani
religion = mother_akan

hre = no

base_tax = 4
base_production = 5
base_manpower = 4

trade_goods = sugar

capital = ""

is_city = yes







