#496 - Guadeloupe

owner = U05
controller = U05
add_core = U05
culture = sun_elf
religion = bulwari_sun_cult

hre = no

base_tax = 6
base_production = 4
base_manpower = 4

trade_goods = tea
center_of_trade = 1

capital = ""

is_city = yes










