#533 - Pir-Ail

owner = U19
controller = U19
add_core = U19
culture = sun_elf
religion = bulwari_sun_cult

base_tax = 2
base_production = 1
base_manpower = 1

trade_goods = fish

capital = ""










