# No previous file for Chittagong
owner = U05
controller = U05
add_core = U05
add_core = F76
culture = brasanni
religion = bulwari_sun_cult

hre = no

base_tax = 2
base_production = 2
base_manpower = 2

trade_goods = livestock

capital = ""

is_city = yes









