# No previous file for Banjar
owner = F29
controller = F29
add_claim = F29
add_core = F45
culture = surani
religion = bulwari_sun_cult

hre = no

base_tax = 2
base_production = 2
base_manpower = 1

trade_goods = grain

capital = ""

is_city = yes








