# No previous file for Yunnan
owner = F27
controller = F27
add_core = F27
culture = firanyan_harpy
religion = the_hunt


base_tax = 2
base_production = 1
base_manpower = 1

trade_goods = iron

capital = ""

is_city = yes









