arbaran_1 = {
	slot = 1
	generic = no
	ai = yes
	potential = { tag = A46 }
	has_country_shield = yes
	
	A46_horsemeat_delicacies = {
		icon = mission_marwari_horses
		required_missions = { }
		position = 1
		
		provinces_to_highlight = {
			OR = {
				province_id = 250 #Golden Plains
				province_id = 334 #Crodam
			}
			NOT = {
				base_production = 5
			}
		}
		
		trigger = {
			250 = {
				owned_by = ROOT
				base_production = 5
			}
			334 = {
				owned_by = ROOT
				base_production = 5
			}
		}
		effect = {
			245 = { #Freecestir
				add_base_tax = 1
				add_base_production = 1
			}
			add_country_modifier = {
				name = "arbaran_horsemeat_trade"
				duration = 5475 #15 years
			}
		}
	}
	
	A46_retain_escanni_refugees = {
		icon = mission_homeless_children
		required_missions = { A46_horsemeat_delicacies }
		position = 3
		
		provinces_to_highlight = {
			province_id = 245
			NOT = { has_tax_building_trigger = yes }
		}
		
		trigger = {
			stability = 3
			245 = {
				has_tax_building_trigger = yes
			}
		}
		
		effect = {
			245 = { #Freecestir
				add_base_tax = 1
				add_base_manpower = 1
			}
			add_country_modifier = {
				name = "arbaran_greentide_refugees"
				duration = 9125 #25 years
			}
		}
	}
	
	A46_freecestir = {
		icon = imperial_capitals
		required_missions = {
			A46_retain_escanni_refugees
			A46_fortify_calascandar
		}
		position = 4
		
		provinces_to_highlight = {
			province_id = 245
			NOT = {
				development = 40
			}
		}
		
		trigger = {
			245 = {
				development = 40
			}
			if = {
				limit = {
					has_dlc = "Mandate of Heaven"
				}
				245 = { is_prosperous = yes }
			}
		}
		
		effect = {
			245 = {
				add_permanent_province_modifier = {
						name = arbaran_freecestir_trade
						duration = -1
				}
				move_capital_effect = yes
			}
			add_mil_power = 100
			add_dip_power = 100
			add_adm_power = 100
		}
	}
	
	A46_clstc_workshops = {
		icon = mission_have_manufactories
		required_missions = { A46_freecestir }
		position = 5
		
		trigger = {
			num_of_owned_provinces_with = {
				value = 15
				has_production_building_trigger = yes
			}
		}
		
		effect = {
			add_country_modifier = {
				name = arbaran_clstc_goods
				duration = 9125
			}
			add_mercantilism = 3
		}
	}
	
	A46_challenging_damescrown_clstc = {
		icon = mission_asian_trader
		required_missions = { A46_clstc_workshops }
		position = 6
		
		trigger = {
			OR = {
				AND = {
					mercantilism = 20
					custom_trigger_tooltip = {
						tooltip = arbaran_level_2_trade_center_in_damescrown_tt
						any_owned_province = {
							province_has_center_of_trade_of_level = 2
							OR = {
								province_id = 234
								any_trade_node_member_province = {
									province_id = 234
								}
							}
						}
					}
				}
				NOT = { exists = A25 }
			}
		}
		
		effect = {
			add_country_modifier = {
				name = arbaran_clstc_loyalty
				duration = -1
			}
			set_global_flag = arbaran_influencing_damescrown
			custom_tooltip = arbaran_damescrown_elections_tt
		}
	}
	
	A46_hostile_takeover = {
		icon = reform_the_state
		required_missions = { A46_challenging_damescrown_clstc }
		position = 7
		
		trigger = {
			OR = {
				A25 = { is_orangists_in_power = yes }
				AND = {
					NOT = { exists = A25 }
					owns = 234
				}
			}
			234 = {
				trade_share = {
					country = ROOT
					share = 50
				}
			}
		}
		
		effect = {
			if = {
				limit = { exists = A25 }
				country_event = { id = arbaran.11 } #mission effects moved to flavour event, keep it a bit of a surprise to the player
			}
			else = {
				add_adm_power = 100 #don't know what else to give if you conquer them
				add_dip_power = 100
				add_mil_power = 100
			}
			remove_country_modifier = arbaran_clstc_loyalty
			add_country_modifier = {
				name = arbaran_clstc_loyalty_2
				duration = -1
			}
		}
	}
	
	A46_company_merger = {
		icon = all_bases_covered
		required_missions = { A46_hostile_takeover }
		position = 8
		
		trigger = {
			OR = {
				AND = {
					dip_power = 300
					A25 = {
						is_subject_of = ROOT
						has_opinion = {
							who = ROOT
							value = 200
						}
						NOT = { liberty_desire = 25 }
						NOT = { num_of_cities = 8 }
					}
				}
				AND = {
					NOT = { exists = A25 }
					owns = 234
				}
			}
		}
		
		effect = {
			if = {
				limit = { exists = A25 }
				add_dip_power = -300
				inherit = A25
				if = {
					limit = { A25 = { is_elector = yes } }
					A46 = {
						elector = yes
					}
				}
				country_event = { id = arbaran.12 }
			}
			else = {
				add_country_modifier = {
					name = arbaran_conquerors_of_damescrown
					duration = 36500
				}
			}
			remove_country_modifier = arbaran_clstc_loyalty_2
			add_country_modifier = {
				name = arbaran_clstc_loyalty_3
				duration = -1
			}
		}
	}
	
	A46_riches_of_the_north = {
		icon = mission_rb_import_potatoes
		required_missions = { A46_integrate_the_magnates }
		position = 9
		
		provinces_to_highlight = {
			OR = {
				area = westmounts_area
				area = gawed_area
				area = south_alen_area
				area = alenic_expanse_area
				area = alenvord_area
				area = balvord_area
				area = jonsway_area
			}
			NOT = { has_manufactory_trigger = yes }
			owned_by = ROOT
		}

		trigger = {
			num_of_owned_provinces_with = {
				value = 20
				OR = {
					area = westmounts_area
					area = gawed_area
					area = south_alen_area
					area = alenic_expanse_area
					area = alenvord_area
					area = balvord_area
					area = jonsway_area
				}
				has_manufactory_trigger = yes
			}
			has_institution = manufactories
		}
		effect = {
			westmounts_area = { add_prosperity = 50 }
			gawed_area = { add_prosperity = 50 }
			south_alen_area = { add_prosperity = 50 }
			alenic_expanse_area = { add_prosperity = 50 }
			alenvord_area = { add_prosperity = 50 }
			balvord_area = { add_prosperity = 50 }
			jonsway_area = { add_prosperity = 50 }
			arbaran_area = {
				add_base_tax = 1
				add_base_production = 1
			}
			golden_plains_area = {
				add_base_tax = 1
				add_base_production = 1
			}
			cestir_area = {
				add_base_tax = 1
				add_base_production = 1
			}
		}
	}
	
	A46_fueling_the_industry = {
		icon = industrialized_rhineland
		required_missions = {
			A46_riches_of_the_north
			A46_northern_clstc
		}
		position = 10
		
		provinces_to_highlight = {
			trade_goods = coal
			owned_by = ROOT
			NOT = {
				AND = {
					base_production = 12
					has_building = furnace
				}
			}
		}
		
		trigger = {
			num_of_owned_provinces_with = {
				value = 5
				base_production = 12
				has_building = furnace
			}
			num_of_owned_provinces_with = {
				value = 100
				has_manufactory_trigger = yes
			}
		}
		
		effect = {
			add_country_modifier = {
				name = arbaran_industrial_revolution
				duration = 9125
			}
			add_adm_power = 100
			add_dip_power = 100
			add_mil_power = 100
		}
	}
}

arbaran_2 = {
	slot = 2
	generic = no
	ai = yes
	potential = {
		tag = A46
	}
	has_country_shield = yes
	
	A46_postwar_mobilization = {
		icon = mission_assemble_an_army
		required_missions = { }
		position = 1
		
		trigger = {
			if = {
				limit = { ai = yes }
				army_size_percentage = 0.6
			}
			else = {
				army_size_percentage = 0.8
			}
		}
		
		effect = {
			teagansfield_area = {
				limit = {
					NOT = { is_core = ROOT }
					NOT = { owned_by = ROOT }
				}
				add_permanent_claim = ROOT
			}
			define_general = {
				name = "Brendon Silcalas"
				fire = 1
				shock = 4
				manuever = 2
				siege = 2
				trait = glory_seeker_personality
			}
		}
	}
	
	A46_linking_up_calascandar = {
		icon = mission_unite_home_region
		required_missions = { A46_postwar_mobilization }
		position = 2
		
		provinces_to_highlight = {
			area = teagansfield_area
			NOT = {
				country_or_non_sovereign_subject_holds = ROOT
			}
		}
		
		trigger = {
			teagansfield_area = {
				type = all
				country_or_non_sovereign_subject_holds = ROOT
			}
		}
		
		effect = {
			north_ibevar_area = {
				limit = {
					NOT = { is_core = ROOT }
					NOT = { owned_by = ROOT }
				}
				add_claim = ROOT
			}
			south_ibevar_area = {
				limit = {
					NOT = { is_core = ROOT }
					NOT = { owned_by = ROOT }
				}
				add_claim = ROOT
			}
			silent_repose_area = {
				limit = {
					NOT = { is_core = ROOT }
					NOT = { owned_by = ROOT }
				}
				add_claim = ROOT
			}
			rotwall_area = {
				limit = {
					NOT = { is_core = ROOT }
					NOT = { owned_by = ROOT }
				}
				add_claim = ROOT
			}
			245 = { #Freecestir
				add_base_tax = 1
				add_base_production = 1
			}
			254 = { #Calascandar
				add_base_tax = 1
				add_base_production = 1
			}
		}
	}
	
	A46_fortify_calascandar = {
		icon = the_great_city_of_buda
		required_missions = { A46_linking_up_calascandar }
		position = 3
		
		provinces_to_highlight = {
			province_id = 254 #Calascandar
			NOT = {
				AND = {
					base_manpower = 10
					has_fort_building_trigger = yes
					owned_by = ROOT
				}
			}
		}
		
		trigger = {
			254 = {
				owned_by = ROOT
				has_fort_building_trigger = yes
				base_manpower = 10
			}
		}
		
		effect = {
			254 = {
				add_permanent_province_modifier = {
					name = arbaran_calascandar_the_great
					duration = -1
				}
			}
			908 = {
				if = {
					limit = {
						NOT = { is_core = ROOT }
						NOT = { owned_by = ROOT }
					}
					add_permanent_claim = ROOT
				}
			}
			262 = {
				if = {
					limit = {
						NOT = { is_core = ROOT }
						NOT = { owned_by = ROOT }
					}
					add_permanent_claim = ROOT
				}
			}
			add_mercantilism = 3
		}
	}
	
	A46_secure_ainway = {
		icon = mission_advance_to_the_dnieper
		required_missions = { A46_fortify_calascandar }
		position = 4
		
		provinces_to_highlight = {
			OR = {
				province_id = 908
				province_id = 262
			}
			NOT = {
				country_or_non_sovereign_subject_holds = ROOT
			}
		}
		
		trigger = {
			908 = { country_or_non_sovereign_subject_holds = ROOT }
			262 = { country_or_non_sovereign_subject_holds = ROOT }
		}
		
		effect = {
			add_mercantilism = 3
			911 = {
				if = {
					limit = {
						NOT = { is_core = ROOT }
						NOT = { owned_by = ROOT }
					}
					add_permanent_claim = ROOT
				}
			}
			259 = {
				if = {
					limit = {
						NOT = { is_core = ROOT }
						NOT = { owned_by = ROOT }
					}
					add_permanent_claim = ROOT
				}
			}
		}
	}
	
	A46_vanbury_trade_secrets = {
		icon = mission_armor_choice
		required_missions = { A46_secure_ainway }
		position = 5
		
		provinces_to_highlight = {
			province_id = 911
			NOT = {
				owned_by = ROOT
			}
		}
		
		trigger = {
			911 = { #Telgeir
				owned_by = ROOT
			}
		}
		
		effect = {
			911 = {
					add_base_tax = -2
					add_base_production = -2
			}
			254 = { #Calascandar
					add_base_tax = 2
					add_base_production = 2
			}
			add_country_modifier = {
				name = "arbaran_vanbury_secrets"
				duration = 18250 #50 years
			}
		}
	}
	
	A46_vanbury_production_techniques = {
		icon = mission_smith
		required_missions = { A46_vanbury_trade_secrets }
		position = 6
		
		provinces_to_highlight = {
			OR = {
				AND = {
					province_id = 254
					NOT = {
						AND = {
							has_manufactory_trigger = yes
							NOT = { has_production_building_trigger = yes }
						}
					}
				}
				AND =  {
					owned_by = ROOT
					OR = {
						trade_goods = iron
						trade_goods = copper
					}
					NOT = { has_manufactory_trigger = yes }
				}
			}
		}
		
		trigger = {
			mil_power = 200
			254 = {
				has_manufactory_trigger = yes
				has_production_building_trigger = yes
				}
			weapons = 3
		}
		
		effect = {
			add_mil_power = -200
			add_country_modifier = {
				name = arbaran_calascandar_plate
				duration = 9125
			}
		}
	}
	
	A46_new_economic_heartland = {
		icon = saxon_manufacturing
		required_missions = {
			A46_vanbury_production_techniques
			A46_challenging_damescrown_clstc
		}
		position = 7
		
		provinces_to_highlight = {
			OR = {
				area = cestir_area
				area = arbaran_area
				area = golden_plains_area
			}
			NOT = {
				AND = {
					development = 25
					has_manufactory_trigger = yes
				}
			}
		}
		
		trigger = {
			cestir_area = {
				development = 30
				has_manufactory_trigger = yes
				type = all
			}
			arbaran_area = {
				development = 30
				has_manufactory_trigger = yes
				type = all
			}
			golden_plains_area = {
				development = 30
				has_manufactory_trigger = yes
				type = all
			}
		}
		
		effect = {
			cestir_area = {
				add_province_modifier = {
					name = arbaran_imperial_economic_heartland
					duration = -1
				}
			}
			arbaran_area = {
				add_province_modifier = {
					name = arbaran_imperial_economic_heartland
					duration = -1
				}
			}
			golden_plains_area = {
				add_province_modifier = {
					name = arbaran_imperial_economic_heartland
					duration = -1
				}
			}
		}
	}
	
	A46_integrate_the_magnates = {
		icon = friends_in_high_places
		required_missions = { A46_imperial_frontier }
		position = 8
		
		trigger = {
			num_of_owned_provinces_with = {
				value = 6
				development = 25
				OR = {
					area = westmounts_area
					area = gawed_area
					area = south_alen_area
					area = alenic_expanse_area
				}
				has_manufactory_trigger = yes
				has_production_building_trigger = yes
			}
		}
		
		effect = {
			mawriver_area = {
				limit = {
					NOT = { is_core = ROOT }
					NOT = { owned_by = ROOT }
				}
				add_permanent_claim = ROOT
			}
			serpentshead_area = {
				limit = {
					NOT = { is_core = ROOT }
					NOT = { owned_by = ROOT }
				}
				add_permanent_claim = ROOT
			}
			northern_greatwoods_area = {
				limit = {
					NOT = { is_core = ROOT }
					NOT = { owned_by = ROOT }
				}
				add_permanent_claim = ROOT
			}
			dinesck_area = {
				limit = {
					NOT = { is_core = ROOT }
					NOT = { owned_by = ROOT }
				}
				add_permanent_claim = ROOT
			}
			west_chillsbay_area = {
				limit = {
					NOT = { is_core = ROOT }
					NOT = { owned_by = ROOT }
				}
				add_permanent_claim = ROOT
			}
			country_event = { id = arbaran.10 }
		}
	}
	
	A46_northern_clstc = {
		icon = renaissance_city
		required_missions = { A46_integrate_the_magnates }
		position = 9
		
		provinces_to_highlight = {
			OR = {
				area = mawriver_area
				area = serpentshead_area
				area = northern_greatwoods_area
				area = dinesck_area
				area = west_chillsbay_area
			}
			NOT = {
				country_or_non_sovereign_subject_holds = ROOT
			}
		}
		
		trigger = {
			mawriver_area = {
				country_or_non_sovereign_subject_holds = ROOT
			}
			serpentshead_area = {
				country_or_non_sovereign_subject_holds = ROOT
			}
			northern_greatwoods_area = {
				country_or_non_sovereign_subject_holds = ROOT
			}
			dinesck_area = {
				country_or_non_sovereign_subject_holds = ROOT
			}
			west_chillsbay_area = {
				country_or_non_sovereign_subject_holds = ROOT
			}
		}
		
		effect = {
			add_mercantilism = 5
			add_country_modifier = {
				name = arbaran_northern_clstc
				duration = 9125
			}
		}
	}
}

arbaran_3 = {
	slot = 3
	generic = no
	ai = yes
	potential = {
		tag = A46
	}
	has_country_shield = yes
	
	A46_clstc_artisanry = {
		icon = continue_the_renaissance
		required_missions = { }
		position = 1
		
		provinces_to_highlight = {
			province_id = 256 #Elvenaire
			NOT = {
				AND = {
					development = 25
					has_production_building_trigger = yes
					has_tax_building_trigger = yes
				}
			}
		}
		
		trigger = {
			256 = {
				owned_by = ROOT
				development = 25
				has_production_building_trigger = yes
				has_tax_building_trigger = yes
			}
		}
		
		effect = {
			256 = {
				add_permanent_province_modifier = {
					name = arbaran_elvenaire_workshops
					duration = -1
				}
			}
			add_mercantilism = 3
		}
	}
	
	A46_investment_from_clstc = {
		icon = the_ostend_company
		required_missions = { A46_clstc_artisanry }
		position = 2
		
		provinces_to_highlight = {
			province_id = 254 #Calascandar
			NOT = {
				AND = {
					development = 20
					has_trade_building_trigger = yes
				}
			}
		}
		
		trigger = {
			254 = {
				development = 20
				has_trade_building_trigger = yes
			}
		}
		
		effect = {
			add_years_of_income = 2
			add_country_modifier = {
				name = "arbaran_clstc_investments"
				duration = 9125 #25 years
			}
		}
	}
	
	A46_arbaran_at_sea = {
		icon = crusader_fleet
		required_missions = {
			A46_investment_from_clstc
			A46_secure_the_border
		}
		position = 3
		
		provinces_to_highlight = {
			AND =  {
				owned_by = ROOT
				AND = {
					has_port = yes
					NOT = { has_dock_building_trigger = yes }
					NOT = { has_shipyard_building_trigger = yes }
				}
			}
		}
		
		trigger = {
			navy_size_percentage = 1
			any_owned_province = {
				AND = {
					has_port = yes
					has_dock_building_trigger = yes
					has_shipyard_building_trigger = yes
				}
			}
		}
		
		effect = {
			245 = {
				add_base_production = 1
				add_base_tax = 1
			}
			vertesk_area = {
				limit = {
					NOT = { is_core = ROOT }
					NOT = { owned_by = ROOT }
				}
				add_permanent_claim = ROOT
			}
			floodmarches_area = {
				limit = {
					NOT = { is_core = ROOT }
					NOT = { owned_by = ROOT }
				}
				add_permanent_claim = ROOT
			}
			add_country_modifier = {
				name = arbaran_at_sea
				duration = 9125
			}
		}
	}
	
	A46_black_tower = {
		icon = mission_mountain_castle
		required_missions = { A46_arbaran_at_sea }
		position = 4
		
		trigger = {
			216 = {
				owned_by = ROOT
				is_core = ROOT
			}
		}
		
		effect = {
			add_mercantilism = 3
			216 = { #Vertesk
				add_base_tax = -2
				add_base_production = -2
				add_base_manpower = -2
			}
			254 = { #Calascandar
				add_base_tax = 2
				add_base_production = 2
				add_base_manpower = 2
			}
			add_country_modifier = {
				name = arbaran_alen_trade
				duration = 9125
			}
		}
	}
	
	A46_ianrens_revenge = {
		icon = mission_destroyed_city
		required_missions = { A46_eclipse_gawed }
		position = 5
		
		provinces_to_highlight = {
			OR = {
				area = balvord_area
				area = jonsway_area
				area = alenic_expanse_area
				area = alenvord_area
			}
			NOT = {
				owned_by = ROOT
			}
		}
		
		trigger = {
			balvord_area = {
				owned_by = ROOT
				is_core = ROOT
				type = all
			}
			jonsway_area = {
				owned_by = ROOT
				is_core = ROOT
				type = all
			}
			alenic_expanse_area = {
				owned_by = ROOT
				is_core = ROOT
				type = all
			}
			alenvord_area = {
				owned_by = ROOT
				is_core = ROOT
				type = all
			}
		}
		
		effect = {
			balvord_area = {
				add_base_tax = -2
				add_base_production = -2
				add_base_manpower = -2
				add_devastation = 100
			}
			jonsway_area = {
				add_base_tax = -2
				add_base_production = -2
				add_base_manpower = -2
				add_devastation = 100
			}
			alenic_expanse_area = {
				add_base_tax = -2
				add_base_production = -2
				add_base_manpower = -2
				add_devastation = 100
			}
			alenvord_area = {
				add_base_tax = -2
				add_base_production = -2
				add_base_manpower = -2
				add_devastation = 100
			}
			arbaran_area = {
				add_base_tax = 2
				add_base_production = 2
				add_base_manpower = 1
			}
			golden_plains_area = {
				add_base_tax = 2
				add_base_production = 2
				add_base_manpower = 1
			}
			cestir_area = {
				add_base_tax = 2
				add_base_production = 2
				add_base_manpower = 1
			}
			dragonhills_area = {
				limit = {
					NOT = { is_core = ROOT }
					NOT = { owned_by = ROOT }
				}
				add_permanent_claim = ROOT
			}
			alenic_frontier_region = {
				limit = {
					NOT = { is_core = ROOT }
					NOT = { owned_by = ROOT }
				}
				add_permanent_claim = ROOT
			}
			add_country_modifier = {
				name = arbaran_ianren_avenged
				duration = 9125
			}
		}
	}
	
	A46_imperial_frontier = {
		icon = assert_our_sovereignty
		required_missions = { A46_ianrens_revenge }
		position = 7
		
		trigger = {
			221 = {
				owned_by = ROOT
				is_core = ROOT
			}
			num_of_owned_provinces_with = {
				region = alenic_frontier_region
				value = 35
			}
		}
		
		effect = {
			add_prestige = 20
			221 = { #Gaweton
				add_base_tax = -3
				add_base_production = -3
				add_base_manpower = -3
			}
			arbaran_area = {
				add_base_tax = 1
				add_base_production = 1
			}
			alenic_frontier_region = {
				add_province_modifier = {
					name = arbaran_assimilation
					duration = 18250 #50 years to outlast separatism and be useful. Using this is optional as the player can always just accept the cultures and leave them.
				}
			}
		}
	}
	
	A46_harbringer_of_the_crusade = {
		icon = mission_star_comet
		required_missions = { A46_imperial_frontier }
		position = 8
		
		trigger = {
			religion = corinite
			num_of_owned_provinces_with = {
				value = 15
				has_tax_building_trigger = yes
			}
			num_of_owned_provinces_with = {
				value = 15
				has_manpower_building_trigger = yes
			}
			NOT = { current_age = age_of_discovery }
		}
		
		effect = {
			add_country_modifier = {
				name = arbaran_northern_crusaders
				duration = 9125 
			}
		}
	}
	
	A46_diplomacy_of_the_sword = { #almost a copy of the generic mission
		icon = mission_build_up_to_force_limit
		required_missions = { A46_harbringer_of_the_crusade }
		position = 9
		
		trigger = {
			if = {
				limit = {
					hre_size = 1
				}
				calc_true_if = {
					desc = gen_hre_electors.tooltip
					all_elector = {
						preferred_emperor = ROOT
					}
					amount = 3
				}
			}
			else = {
				num_of_allies = 3
			}
		}
		
		effect = {
			add_prestige = 15
			add_country_modifier = {
				name = "gen_hre_diplomacy_mod"
				duration = 5475
			}
		}
	}
	
	A46_silcalas_emperors = {
		icon = mission_crowning
		required_missions = { A46_diplomacy_of_the_sword }
		position = 10
		
		trigger = {
			if = {
				limit = {
					hre_size = 1
				}
				is_emperor = yes
			}
			else = {
				government_rank = 3
			}
		}
		
		effect = {
			if = {
				limit = { hre_size = 1 }
				add_country_modifier = {
					name = arbaran_silcalas_emperors
					duration = -1
				}
			}
			else = { add_prestige = 50 }
		}
	}
}

arbaran_4 = {
	slot = 4
	generic = no
	ai = yes
	potential = {
		tag = A46
	}
	has_country_shield = yes
	
	A46_northern_march = {
		icon = fortress_of_belgrade
		required_missions = { }
		position = 1
		
		provinces_to_highlight = {
			OR = {
				province_id = 244 #Arca Dhannaen
				province_id = 252 #Arca Pirvar
			}
			NOT = {
				AND = {
					has_fort_building_trigger = yes
					base_manpower = 8
				}
			}
		}
		
		trigger = {
			244 = {
				base_manpower = 8
				has_fort_building_trigger = yes
			}
			252 = {
				base_manpower = 8
				has_fort_building_trigger = yes
			}
		}
		
		effect = {
			derwing_area = {
				limit = {
					NOT = { is_core = ROOT }
					NOT = { owned_by = ROOT }
				}
				add_permanent_claim = ROOT
			}
			244 = {
				add_province_modifier = {
					name = local_fortress
					duration = 18250 #50 years
				}
			}
			252 = {
				add_province_modifier = {
					name = local_fortress
					duration = 18250 #50 years
				}
			}
		}
	}
	
	A46_secure_the_border = {
		icon = mission_great_wall
		required_missions = { A46_northern_march }
		position = 2
		
		provinces_to_highlight = {
			area = derwing_area
			NOT = {
				country_or_non_sovereign_subject_holds = ROOT
			}
		}
		
		trigger = {
			dip_power = 100
			derwing_area = {
				type = all
				country_or_non_sovereign_subject_holds = ROOT
			}
			249 = {
				owned_by = ROOT
				is_core = ROOT
			}
		}
		
		effect = {
			add_dip_power = -100
			249 = { #Aramar
				add_permanent_province_modifier = {
					name = arbaran_harbour_of_aramar
					duration = -1
				}
			}
		}
	}
	
	A46_eclipse_gawed = {
		icon = mission_confrontation
		required_missions = { A46_secure_the_border }
		position = 4
		
		trigger = {
			stability = 3
			if = {
			    limit = {
					exists = A13
				}
				army_size = A13
			}
			OR = {
				emperor = {
					has_opinion = {
						who = ROOT
						value = 140
					}
				}
				is_emperor = yes
			}
		}
		
		effect = {
			balvord_area = {
				limit = {
					NOT = { is_core = ROOT }
					NOT = { owned_by = ROOT }
				}
				add_permanent_claim = ROOT
			}
			jonsway_area = {
				limit = {
					NOT = { is_core = ROOT }
					NOT = { owned_by = ROOT }
				}
				add_permanent_claim = ROOT
			}
			alenvord_area = {
				limit = {
					NOT = { is_core = ROOT }
					NOT = { owned_by = ROOT }
				}
				add_permanent_claim = ROOT
			}
			alenic_expanse_area = {
				limit = {
					NOT = { is_core = ROOT }
					NOT = { owned_by = ROOT }
				}
				add_permanent_claim = ROOT
			}
			dragonhills_area = {
				limit = {
					NOT = { is_core = ROOT }
					NOT = { owned_by = ROOT }
				}
				add_claim = ROOT
			}
			alenic_frontier_region = {
				limit = {
					NOT = { is_core = ROOT }
					NOT = { owned_by = ROOT }
				}
				add_claim = ROOT
			}
		}
	}
	
	A46_fisher_price = {
		icon = secure_the_republic
		required_missions = { A46_eclipse_gawed }
		position = 5
		
		trigger = {
			if = {
				limit = { exists = A40 }
				A40 = {
					OR = {
						is_subject_of = ROOT
						has_spy_network_from = { who = FROM value = 60 }
					}
				}
			}
			else_if = {
				limit = {
					153 = {
						NOT = { owned_by = ROOT }
					}
				}
				any_country = {
					owns = 153
					has_spy_network_from = { who = FROM value = 70 }
				}
			}
			else_if = {
				limit = { 153 = { owned_by = ROOT } }
				153 = { is_core = ROOT }
			}
			num_of_galley = 20
		}
		
		effect = {
			if = {
				limit = { exists = A40 }
				if = {
					limit = {
						NOT = { A40 = { is_subject_of = ROOT } }
					}
					add_dip_power = -100
					add_casus_belli = {
							target = A40
							type = cb_restore_personal_union
							months = 600
					}
				}
			}
			else = {
				every_province = {
					limit = { 
						is_core = A40
						NOT = { is_core = ROOT }
					}
					add_permanent_claim = ROOT
				}
			}
			the_borders_area = {
				limit = {
					NOT = { is_core = ROOT }
					NOT = { owned_by = ROOT }
				}
				add_permanent_claim = ROOT
			}
		}
	}
	
	A46_reclaim_aelcandar = {
		icon = mission_magnificent_castle
		required_missions = { A46_fisher_price }
		position = 6
		
		provinces_to_highlight = {
			province_id = 162 #Aelcandar
			NOT = { owned_by = ROOT }
		}
		
		trigger = {
			162 = { owned_by = ROOT }
		}
		
		effect = {
			add_prestige = 20
			small_country_region = {
				limit = {
					NOT = { is_core = ROOT }
					NOT = { owned_by = ROOT }
				}
				add_permanent_claim = ROOT
			}
			dames_forehead_area = {
				limit = {
					NOT = { is_core = ROOT }
					NOT = { owned_by = ROOT }
				}
				add_permanent_claim = ROOT
			}
			beepeck_area = {
				limit = {
					NOT = { is_core = ROOT }
					NOT = { owned_by = ROOT }
				}
				add_permanent_claim = ROOT
			}
		}
	}
	
	A46_defender_of_the_small_country = {
		icon = mission_sweat_fealty
		required_missions = { A46_reclaim_aelcandar }
		position = 7
		
		provinces_to_highlight = {
			region = small_country_region
			NOT = {
				country_or_non_sovereign_subject_holds = ROOT
			}
		}
		
		trigger = {
			small_country_region = {
				country_or_non_sovereign_subject_holds = ROOT
				type = all
			}
		}
		
		effect = {
			small_country_region = { #rougly 90 dev
				add_base_tax = -1
				add_base_production = -1
				add_base_manpower = -1
				add_devastation = 100
			}
			arbaran_area = { #20 dev 
				add_base_tax = 2
				add_base_production = 2
				add_base_manpower = 1
			}
			golden_plains_area = { #10 dev
				add_base_tax = 2
				add_base_production = 2
				add_base_manpower = 1
			}
			cestir_area = { #20 dev, 50 dev total transferred to arbaran areas, 40 dev lost, RIP halflings
				add_base_tax = 2
				add_base_production = 2
				add_base_manpower = 1
			}
			162 = { #Aelcandar
				change_culture = ROOT
				change_religion = ROOT
			}
		}
	}
	
	A46_pacifying_the_liberated = {
		icon = establish_oktoberfest
		required_missions = { A46_defender_of_the_small_country }
		position = 8
		
		provinces_to_highlight = {
			province_id = 162 #Aelcandar
			OR = {
				NOT = { owned_by = ROOT }
				NOT = { has_manpower_building_trigger = yes }
				NOT = { has_forcelimit_building_trigger = yes }
				NOT = { province_has_current_tech_fort_trigger = yes }
				NOT = { development = 30 }
			}
		}
		trigger = {
			162 = { #Aelcandar
				owned_by = ROOT
				has_manpower_building_trigger = yes
				has_forcelimit_building_trigger = yes
				province_has_current_tech_fort_trigger = yes
				development = 30 
			}
		}
		
		effect = {
			add_country_modifier = {
				name = arbaran_cheap_halfling_labour
				duration = -1
			}
		}
	}
	
	A46_legacy_of_the_free_realms = {
		icon = swiss_mercenaries
		required_missions = {
			A46_harbringer_of_the_crusade
			A46_bastion_of_the_east
		}
		position = 9
		
		trigger = {
			custom_trigger_tooltip = {
				tooltip = arbaran_evil_ruler_in_cannor_tt
				any_country = {
					same_continent = ROOT
					is_evil = yes
				}
			}
		}
		
		effect = {
			add_country_modifier = {
				name = arbaran_war_against_evil
				duration = 9125
			}
			set_country_flag = loose_anti_evil #lets you use the cb against all rulers on the same continent
			west_castanor_region = {
				limit = {
					NOT = { is_core = ROOT }
					NOT = { owned_by = ROOT }
				}
				add_claim = ROOT
			}
			custom_tooltip = arbaran_all_cannor_anti_evil_tt
		}
	}
	
	A46_vanquish_all_evil = {
		icon = mission_torch_fire
		required_missions = { A46_legacy_of_the_free_realms }
		position = 10
		
		trigger = {
			custom_trigger_tooltip = {
				tooltip = arbaran_no_evil_ruler_in_cannor_tt
				NOT = {
					any_country = {
						same_continent = ROOT
						is_evil = yes
					}
				}
			}
			has_country_modifier = defeated_evil_ruler
		}
		
		effect = {
			add_adm_power = 100
			add_dip_power = 100
			add_mil_power = 100
			add_country_modifier = {
				name = arbaran_vanguard_against_evil
				duration = -1
			}
		}
	}
}

arbaran_5 = {
	slot = 5
	generic = no
	ai = yes
	potential = {
		tag = A46
	}
	has_country_shield = yes
	
	A46_enact_greentide_adventurer_taxes = {
		icon = mission_landsknecht_soldier
		required_missions = { }
		position = 1
		
		provinces_to_highlight = {
			OR = {
				province_id = 245
				province_id = 246
				province_id = 256
			}
			NOT = { has_trade_building_trigger = yes }
		}
		
		trigger = {
			245 = {
				has_trade_building_trigger = yes
			}
			246 = {
				has_trade_building_trigger = yes
			}
			256 = {
				has_trade_building_trigger = yes
			}
		}
		
		effect = {
			245 = {
				add_base_tax = 2
			}
			add_country_modifier = {
				name = arbaran_adventurer_taxes
				duration = 9125 #25 years
			}
		}
	}
	
	A46_incentivize_adventurer_interests = {
		icon = mission_warrior_gold
		required_missions = { A46_enact_greentide_adventurer_taxes }
		position = 2
		
		trigger = {
			has_estate_privilege = estate_adventurers_ennoblement_of_adventurers
			estate_loyalty = { estate = estate_adventurers loyalty = 50 }
			any_country = { war_with = ROOT }
			num_of_mercenaries = 10
		}
		
		effect = {
			set_country_flag = arbaran_improved_ennoblement_privilege
			custom_tooltip = arbaran_improved_ennoblement_privilege_tt
			245 = { add_base_manpower = 2 }
		}
	}
	
	A46_emperors_blessing = {
		icon = mission_diplomacy_missive
		required_missions = { A46_incentivize_adventurer_interests }
		position = 3
		
		trigger = {
			OR = {
				emperor = {
					has_opinion = {
						who = ROOT
						value = 140
					}
				}
				is_emperor = yes
			}
		}
		
		effect = {
			forlorn_vale_region = {
				limit = {
					NOT = { is_core = ROOT }
					NOT = { owned_by = ROOT }
				}
				add_permanent_claim = ROOT
			}
			add_country_modifier = {
				name = wesdam_emperor_favour #reusing cause it's the same thing
				duration = 9125
			}
		}
	}
	
	A46_the_elfrealms_demise = {
		icon = mission_conquer_romania
		required_missions = { A46_emperors_blessing }
		position = 4
		
		provinces_to_highlight = {
			OR = {
				area = north_ibevar_area
				area = south_ibevar_area
				area = silent_repose_area
			}
			NOT = {
				owned_by = ROOT
			}
		}
		
		trigger = {
			north_ibevar_area = {
				owned_by = ROOT
				is_core = ROOT
				type = all
			}
			south_ibevar_area = {
				owned_by = ROOT
				is_core = ROOT
				type = all
			}
			silent_repose_area = {
				owned_by = ROOT
				is_core = ROOT
				type = all
			}
		}
		
		effect = {
			add_prestige = 30
			245 = {
				add_base_tax = 1
				add_base_production = 1
				add_base_manpower = 1
			}
			add_country_modifier = {
				name = arbaran_elven_conversion
				duration = 5475 #15 years
			}
		}
	}
	
	A46_elvenaire_administration = {
		icon = mission_city_prosperity
		required_missions = { A46_the_elfrealms_demise }
		position = 5
		
		provinces_to_highlight = {
			province_id = 256 #Elvenaire
			NOT = {
				AND = {
					development = 30
					has_courthouse_building_trigger = yes
				}
			}
		}
		
		trigger = {
			256 = {
				development = 30
				has_courthouse_building_trigger = yes
			}
		}
		
		effect = {
			245 = {
				add_elven_minority_size_effect = yes
			}
			medium_increase_of_elven_tolerance_effect = yes
			add_adm_power = 100
		}
	}
	
	A46_stand_against_the_new_realms = {
		icon = mission_italian_condottiere
		required_missions = { A46_elvenaire_administration }
		position = 6
		
		provinces_to_highlight = {
			OR = {
				area = cursewood_area
				area = whistlevale_area
			}
			NOT = {
				owned_by = ROOT
			}
		}
		
		trigger = {
			cursewood_area = {
				owned_by = ROOT
				is_core = ROOT
				type = all
			}
			whistlevale_area = {
				owned_by = ROOT
				is_core = ROOT
				type = all
			}
		}
		
		effect = {
			cursewood_area = {
				add_province_modifier = {
					name = arbaran_assimilation
					duration = 18250 #50 years to outlast separatism and be useful. Using this is optional as the player can always just accept the cultures and leave them.
				}
			}
			whistlevale_area = {
				add_province_modifier = {
					name = arbaran_assimilation
					duration = 18250 #50 years to outlast separatism and be useful. Using this is optional as the player can always just accept the cultures and leave them.
				}
			}
			add_country_modifier = {
				name = arbaran_adventurer_influx
				duration = 9125
			}
		}
	}
	
	A46_fortify_the_eastern_borders = {
		icon = mission_great_wall
		required_missions = { A46_stand_against_the_new_realms }
		position = 7
		
		trigger = {
			num_of_owned_provinces_with = {
				area = whistlevale_area
				has_fort_building_trigger = yes
				value = 1
			}
			num_of_owned_provinces_with = {
				area = cursewood_area
				has_fort_building_trigger = yes
				value = 1
			}
		}
		
		effect = {
			245 = {
				add_base_manpower = 2
				add_base_tax = 1
				add_base_production = 1
			}
			set_country_flag = reclaim_escandar
			custom_tooltip = arbaran_reclaim_escandar_tt
			316 = {
				if = {
					limit = {
						NOT = { is_core = ROOT }
						NOT = { owned_by = ROOT }
					}
					add_permanent_claim = ROOT
				}
			}
		}
	}
	
	A46_bastion_of_the_east = {
		icon = protect_against_the_turks
		required_missions = { A46_fortify_the_eastern_borders }
		position = 8
		
		trigger = {
			owns_core_province = 316
		}
		
		effect = {
			gnollsgate_area = {
				limit = {
					NOT = { is_core = ROOT }
					NOT = { owned_by = ROOT }
				}
				add_permanent_claim = ROOT
			}
			add_prestige = 25
		}
	}
	
	A46_eastern_clstc = {
		icon = chater_the_voc
		required_missions = { A46_legacy_of_the_free_realms }
		position = 10
		
		trigger = {
			num_of_owned_provinces_with = {
				region = west_castanor_region
				value = 20
			}
		}
		
		effect = {
			west_castanor_region = {
				limit = {
					NOT = { is_core = ROOT }
					NOT = { owned_by = ROOT }
				}
				add_permanent_claim = ROOT
			}
			add_mercantilism = 5
			add_country_modifier = {
				name = arbaran_eastern_clstc
				duration = 9125
			}
		}
	}
}