defined_text = {
	name = getArtificeGovernment
	random = no
	
	text = {
        localisation_key = artifice_government_technocracy
        trigger = {
			has_government_attribute = is_technocracy
        }
    }
	text = {
        localisation_key = artifice_government_magocracy
        trigger = {
			has_government_attribute = is_magocracy
        }
    }
	text = {
        localisation_key = artifice_government_none
        trigger = {
			always = yes
		}
    }
}

defined_text = {
	name = getArtificeAdministration
	random = no
	
	text = {
        localisation_key = artifice_administration_gnome
        trigger = {
			has_country_modifier = gnomish_administration
        }
    }
	text = {
        localisation_key = artifice_administration_goblin
        trigger = {
			has_country_modifier = goblin_administration
        }
    }
	text = {
        localisation_key = artifice_administration_kobold
        trigger = {
			has_country_modifier = kobold_administration
        }
    }
	text = {
        localisation_key = artifice_administration_troll
        trigger = {
			has_country_modifier = troll_administration
        }
    }
	text = {
        localisation_key = artifice_administration_elven
        trigger = {
			has_country_modifier = elven_administration
        }
    }
	text = {
        localisation_key = artifice_administration_dwarven
        trigger = {
			has_country_modifier = dwarven_administration
        }
    }
	text = {
        localisation_key = artifice_administration_harimari
        trigger = {
			has_country_modifier = harimari_administration
        }
    }
	text = {
        localisation_key = artifice_administration_none
		trigger = {
			always = yes
		}
    }
}

defined_text = {
	name = getArtificeMilitary
	random = no
	
	text = {
        localisation_key = artifice_military_gnome
        trigger = {
			has_country_modifier = gnomish_military
        }
    }
	text = {
        localisation_key = artifice_military_goblin
        trigger = {
			has_country_modifier = goblin_military
        }
    }
	text = {
        localisation_key = artifice_military_kobold
        trigger = {
			has_country_modifier = kobold_military
        }
    }
	text = {
        localisation_key = artifice_military_troll
        trigger = {
			has_country_modifier = troll_military
        }
    }
	text = {
        localisation_key = artifice_military_elven
        trigger = {
			has_country_modifier = elven_military
        }
    }
	# text = {
    #     localisation_key = artifice_military_dwarven
    #     trigger = {
	# 		has_country_modifier = dwarven_military
    #     }
    # }
	text = {
        localisation_key = artifice_military_harimari
        trigger = {
			has_country_modifier = harimari_military
        }
    }
	text = {
        localisation_key = artifice_military_none
		trigger = {
			always = yes
		}
    }
}

defined_text = {
	name = getArtificeReligion
	random = no
	
	text = {
        localisation_key = artifice_religion_ravelian
        trigger = {
			religion = ravelian
        }
    }
	text = {
        localisation_key = artifice_religion_the_thought
        trigger = {
			religion = the_thought
        }
    }
	text = {
        localisation_key = artifice_religion_fey_court
        trigger = {
			religion = fey_court
        }
    }
	text = {
        localisation_key = artifice_religion_ashentree_pact
        trigger = {
			religion = ashentree_pact
        }
    }
	text = {
        localisation_key = artifice_religion_none
		trigger = {
			always = yes
		}
    }
}

defined_text = {
	name = getArtificeManufactories
	random = no
	
	text = {
        localisation_key = artifice_manufactories_embraced
        trigger = {
			has_institution = manufactories
        }
    }
	text = {
        localisation_key = artifice_manufactories_not_embraced
		trigger = {
			NOT = { has_institution = manufactories }
		}
    }
}

defined_text = {
	name = getArtificeIndustrialization
	random = no
	
	text = {
        localisation_key = artifice_industrialization_embraced
        trigger = {
			has_institution = industrialization
        }
    }
	text = {
        localisation_key = artifice_industrialization_not_embraced
		trigger = {
			NOT = { has_institution = industrialization }
		}
    }
}

defined_text = {
	name = getArtificeInnovativeness
	random = no
	
	text = {
        localisation_key = artifice_innovativeness_100
        trigger = {
			innovativeness = 100
        }
    }
	text = {
        localisation_key = artifice_innovativeness_80
        trigger = {
			innovativeness = 80
        }
    }
	text = {
        localisation_key = artifice_innovativeness_60
        trigger = {
			innovativeness = 60
        }
    }
	text = {
        localisation_key = artifice_innovativeness_40
        trigger = {
			innovativeness = 40
        }
    }
	text = {
        localisation_key = artifice_innovativeness_20
        trigger = {
			innovativeness = 20
        }
    }
	text = {
        localisation_key = artifice_innovativeness_0
		trigger = {
			always = yes
		}
    }
}

defined_text = {
	name = getArtificeArtificersInfluence
	random = no
	
	text = {
        localisation_key = artifice_artificers_influence_60
        trigger = {
			estate_influence = {
				estate = estate_artificers
				influence = 60
			}
        }
    }
	text = {
        localisation_key = artifice_artificers_influence_40
        trigger = {
			estate_influence = {
				estate = estate_artificers
				influence = 40
			}
        }
    }
	text = {
        localisation_key = artifice_artificers_influence_20
        trigger = {
			estate_influence = {
				estate = estate_artificers
				influence = 20
			}
        }
    }
	text = {
        localisation_key = artifice_artificers_influence_0
		trigger = {
			estate_influence = {
				estate = estate_artificers
				influence = 0
			}
		}
    }
	text = {
        localisation_key = artifice_artificers_influence_none
		trigger = {
			always = yes
		}
    }
}

defined_text = {
	name = getArtificeMagesInfluence
	random = no
	
	text = {
        localisation_key = artifice_mages_influence_60
        trigger = {
			estate_influence = {
				estate = estate_mages
				influence = 60
			}
        }
    }
	text = {
        localisation_key = artifice_mages_influence_40
        trigger = {
			estate_influence = {
				estate = estate_mages
				influence = 40
			}
        }
    }
	text = {
        localisation_key = artifice_mages_influence_20
        trigger = {
			estate_influence = {
				estate = estate_mages
				influence = 20
			}
        }
    }
	text = {
        localisation_key = artifice_mages_influence_0
		trigger = {
			estate_influence = {
				estate = estate_mages
				influence = 0
			}
		}
    }
	text = {
        localisation_key = artifice_mages_influence_none
		trigger = {
			always = yes
		}
    }
}

defined_text = {
	name = getArtificeRuler
	random = no
	
	text = {
        localisation_key = artifice_ruler_lich
        trigger = {
			has_ruler_flag = lich_ruler
        }
    }
	text = {
        localisation_key = artifice_ruler_witch_king
        trigger = {
			has_ruler_modifier = witch_king_modifier
        }
    }
	text = {
        localisation_key = artifice_ruler_none
        trigger = {
			always = yes
        }
    }
}

defined_text = {
	name = getArtificeUniversities
	random = no
	
	text = {
		localisation_key = artifice_university_yes
		trigger = {
			university = 1
		}
	}
	text = {
		localisation_key = artifice_university_none
		trigger = {
			always = yes
		}
	}
}

defined_text = {
	name = getArtificeCoal
	random = no
	
	text = {
		localisation_key = artifice_coal_points
		trigger = {
			check_variable = {
				which = CoalArtificePoints
				value = 1
			}
		}
	}
}

defined_text = {
	name = getArtificeRelics
	random = no
	
	text = {
		localisation_key = artifice_relics_points
		trigger = {
			check_variable = {
				which = RelicsArtificePoints
				value = 1
			}
		}
	}
}

defined_text = {
	name = getArtificeDamestear
	random = no
	
	text = {
		localisation_key = artifice_damestear_points
		trigger = {
			check_variable = {
				which = DamestearArtificePoints
				value = 1
			}
		}
	}
}

defined_text = {
	name = getArtificeMissions
	random = no
	
	text = {
		localisation_key = artifice_mission_points
		trigger = {
			check_variable = {
				which = StaticArtificePoints
				value = 1
			}
		}
	}
}