country_decisions = {
	
	revoke_high_clans = {
		major = yes
		potential = {
			has_global_flag = Z26_westmoors_high_clans
			NOT = {
				has_global_flag = Z26_revoked_high_clans
			}
			any_owned_province = {
				OR = {
					culture = moorman
					culture = moorman_r
				}
			}
		}
		
		allow = {
			is_at_war = no
			NOT = {
				OR = {
					accepted_culture = moorman
					accepted_culture = moorman_r
				}
			}
			owns_core_province = 340
			owns_core_province = 192
			owns_core_province = 201
			adm_power = 200
		}
		effect = {
			add_adm_power = -200
			custom_tooltip = adshaw_angry_moormen
			hidden_effect = {
				340 = {
					remove_province_modifier = Z26_high_clan_seat
					spawn_rebels = {
						type = nationalist_rebels
						size = 3
						win = yes
					}
				}
				192 = {
					remove_province_modifier = Z26_high_clan_seat
					spawn_rebels = {
						type = nationalist_rebels
						size = 3
						win = yes
					}
				}
				201 = {
					remove_province_modifier = Z26_high_clan_seat
					spawn_rebels = {
						type = nationalist_rebels
						size = 3
						win = yes
					}
				}
				westmoor_proper_area = {
					remove_province_modifier = Z26_clan_council
					add_nationalism = 15
				}
				moorhills_area = {
					remove_province_modifier = Z26_clan_council
					add_nationalism = 15
				}
				beronmoor_area = {
					remove_province_modifier = Z26_clan_council
					add_nationalism = 15
				}
				westmounts_area = {
					remove_province_modifier = Z26_clan_council
					add_nationalism = 15
				}
				clr_global_flag = Z26_westmoors_high_clans
				set_global_flag = Z26_revoked_high_clans
			}
		}
	}
}